[
	{
		"user" : "default",
		"info" :[
			{
				"service" : "google adwords",
				"service_id" : 34,
			    "metric" : [
		        	{   "field" : "CTR",
		        		"lable" : "CTR",
		        		"associated_dataview_id" : "cgn"
		        	},
		        	{
		        	   "field" : "ImpressionCount",
		        	   "lable" : "Total Impressions",
		        		"associated_dataview_id" : "cgn"
		        	},
		        	{
		        		"field" : "ClickCount",
		        		"lable" : "Total clicks",
		        		"associated_dataview_id" : "cgn"
		        	}	        
			    ]
			},
			{
				"service" : "Google Analytics",
			    "service_id" : 33,
			    "metric" : [
		        	{
		        		"field" : "VisitCount",
		        		"lable" : "visit count",
		        		"associated_dataview_id" : "cgn"
		        	},
		        	{
		        		"field" : "PageviewCount",
		        		"lable" : "Page view count",
		        		"associated_dataview_id" : "cgn"
		        	}
		        ]
			},
			{
				"service" : "Facebook Insights",
				"service_id" : 44,
			    "metric" : [
		        	{
		        		"field" : "PageviewCount",
		        		"lable" : "Page view count",
		        		"associated_dataview_id" : "cgn"
		        	},
		        	{
		        		"field" : "Page_post_impressionsCount",
		        		"lable" : "Impression count",
		        		"associated_dataview_id" : "cgn"
		        	}
		        ]
			}
		]
	}
]